Codigo_Grupo,Nombre_Grupo,Nombre_Usuario,E-mail_Usuario,Estado_Grupo,Sub-Producto,Codigo_Comercio,Nombre,RUC,Moneda,MCC,Segmento,Telefono,Correo,Flujo_Transaccional,Habilitar_Tokenizacion,Habilitar_Recurrencia,Mostrar_FirstName_LastName,Mostrar_Cuotas,Liquidacion_Automatica,Rule_Engine,Disenho_Link,Logo_Comercio,Estado_Comercio,MDD1,MDD2,MDD3,MDD10,MDD11,ATRIBUTO_1,VALOR_ATRIBUTO_1,ATRIBUTO_2,VALOR_ATRIBUTO_2,product_id,subproduct_id
19,VisaNet,Info,info@quiputech.com,Activo,Pago Web,161633603,EL HOYO 19,20161633683,SOLES,5812,D,998127785,,Autorizacion,0,0,0,0,1,1,,,Activo,20161633683,EL HOYO 19,,D,5812,IMP_MONTO_MIN_OPERACION,0.2,IMP_MONTO_MAX_OPERACION,99999,1,16
19,VisaNet,Info,info@quiputech.com,Activo,Pago Web,511555732,PRO BOCA,20511555729,SOLES,5812,A,4454333,VERONICA@PRO-BOCA.NET,Autorizacion,0,0,0,0,1,1,,,Activo,20511555729,PRO BOCA,,A,5812,IMP_MONTO_MIN_OPERACION,0.2,IMP_MONTO_MAX_OPERACION,99999,1,16
19,VisaNet,Info,info@quiputech.com,Activo,Pago Web,511555742,PRO BOCA CAJA QR,20511555729,SOLES,5814,A,913034815,VERONICA@PRO-BOCA.NET,Autorizacion,0,0,0,0,1,1,,,Activo,20511555729,PRO BOCA CAJA QR,,A,5814,IMP_MONTO_MIN_OPERACION,0.2,IMP_MONTO_MAX_OPERACION,99999,1,16
19,VisaNet,Info,info@quiputech.com,Activo,Pago Web,511555750,PRO BOCA,20511555729,SOLES,5814,A,973632898,,Autorizacion,0,0,0,0,1,1,,,Activo,20511555729,PRO BOCA,,A,5814,IMP_MONTO_MIN_OPERACION,0.2,IMP_MONTO_MAX_OPERACION,99999,1,16
19,VisaNet,Info,info@quiputech.com,Activo,Pago Web,511555743,PRO BOCA TRR 1,20511555729,SOLES,5814,A,913034815,JUAN.REYESJARD@GMAIL.COM,Autorizacion,0,0,0,0,1,1,,,Activo,20511555729,PRO BOCA TRR 1,,A,5814,IMP_MONTO_MIN_OPERACION,0.2,IMP_MONTO_MAX_OPERACION,99999,1,16
19,VisaNet,Info,info@quiputech.com,Activo,Pago Web,511555745,PRO BOCA TRR 3,20511555729,SOLES,5814,A,913034815,JUAN.REYESJARD@GMAIL.COM,Autorizacion,0,0,0,0,1,1,,,Activo,20511555729,PRO BOCA TRR 3,,A,5814,IMP_MONTO_MIN_OPERACION,0.2,IMP_MONTO_MAX_OPERACION,99999,1,16
19,VisaNet,Info,info@quiputech.com,Activo,Pago Web,511555746,PRO BOCA,20511555729,SOLES,5814,A,973632898,,Autorizacion,0,0,0,0,1,1,,,Activo,20511555729,PRO BOCA,,A,5814,IMP_MONTO_MIN_OPERACION,0.2,IMP_MONTO_MAX_OPERACION,99999,1,16
19,VisaNet,Info,info@quiputech.com,Activo,Pago Web,511555733,PRO BOCA,20511555729,SOLES,5812,A,994216741,VERONICA@PRO-BOCA.NET,Autorizacion,0,0,0,0,1,1,,,Activo,20511555729,PRO BOCA,,A,5812,IMP_MONTO_MIN_OPERACION,0.2,IMP_MONTO_MAX_OPERACION,99999,1,16
19,VisaNet,Info,info@quiputech.com,Activo,Pago Web,511555734,LA MUTTI,20511555729,SOLES,5814,A,994216741,VERONICA@PRO-BOCA.NET,Autorizacion,0,0,0,0,1,1,,,Activo,20511555729,LA MUTTI,,A,5814,IMP_MONTO_MIN_OPERACION,0.2,IMP_MONTO_MAX_OPERACION,99999,1,16
19,VisaNet,Info,info@quiputech.com,Activo,Pago Web,511555749,LA MUTTI BCP LA MOLINA,20511555729,SOLES,5814,A,981235190,,Autorizacion,0,0,0,0,1,1,,,Activo,20511555729,LA MUTTI BCP LA MOLINA,,A,5814,IMP_MONTO_MIN_OPERACION,0.2,IMP_MONTO_MAX_OPERACION,99999,1,16
19,VisaNet,Info,info@quiputech.com,Activo,Pago Web,511555735,LA MUTTI,20511555729,SOLES,5814,A,940202869,0,Autorizacion,0,0,0,0,1,1,,,Activo,20511555729,LA MUTTI,,A,5814,IMP_MONTO_MIN_OPERACION,0.2,IMP_MONTO_MAX_OPERACION,99999,1,16
19,VisaNet,Info,info@quiputech.com,Activo,Pago Web,511555747,PRO BOCA,20511555729,SOLES,5814,A,973632898,,Autorizacion,0,0,0,0,1,1,,,Activo,20511555729,PRO BOCA,,A,5814,IMP_MONTO_MIN_OPERACION,0.2,IMP_MONTO_MAX_OPERACION,99999,1,16
19,VisaNet,Info,info@quiputech.com,Activo,Pago Web,511555737,PRO BOCA LIMA,20511555729,SOLES,5814,B,0,VERONICA@PRO-BOCA.NET,Autorizacion,0,0,0,0,1,1,,,Activo,20511555729,PRO BOCA LIMA,,B,5814,IMP_MONTO_MIN_OPERACION,0.2,IMP_MONTO_MAX_OPERACION,99999,1,16
19,VisaNet,Info,info@quiputech.com,Activo,Pago Web,511555751,PRO BOCA LA VICTORIA,20511555729,SOLES,5814,B,0,,Autorizacion,0,0,0,0,1,1,,,Activo,20511555729,PRO BOCA LA VICTORIA,,B,5814,IMP_MONTO_MIN_OPERACION,0.2,IMP_MONTO_MAX_OPERACION,99999,1,16
19,VisaNet,Info,info@quiputech.com,Activo,Pago Web,511555744,PRO  BOCA,20511555729,SOLES,5812,A,913034815,,Autorizacion,0,0,0,0,1,1,,,Activo,20511555729,PRO  BOCA,,A,5812,IMP_MONTO_MIN_OPERACION,0.2,IMP_MONTO_MAX_OPERACION,99999,1,16
19,VisaNet,Info,info@quiputech.com,Activo,Pago Web,511555736,PRO BOCA SAN ISIDRO,20511555729,SOLES,5814,B,0,VERONICA@PRO-BOCA.NET,Autorizacion,0,0,0,0,1,1,,,Activo,20511555729,PRO BOCA SAN ISIDRO,,B,5814,IMP_MONTO_MIN_OPERACION,0.2,IMP_MONTO_MAX_OPERACION,99999,1,16
19,VisaNet,Info,info@quiputech.com,Activo,Pago Web,511555738,LAGOM KITCHEN Y CANTEEN,20511555729,SOLES,5814,B,983728803,INFO@FIKA.PE,Autorizacion,0,0,0,0,1,1,,,Activo,20511555729,LAGOM KITCHEN Y CANTEEN,,B,5814,IMP_MONTO_MIN_OPERACION,0.2,IMP_MONTO_MAX_OPERACION,99999,1,16
19,VisaNet,Info,info@quiputech.com,Activo,Pago Web,511555730,PRO BOCA,20511555729,SOLES,5812,A,4454333,COMEDORHUAYLAS@BCP.COM.PE,Autorizacion,0,0,0,0,1,1,,,Activo,20511555729,PRO BOCA,,A,5812,IMP_MONTO_MIN_OPERACION,0.2,IMP_MONTO_MAX_OPERACION,99999,1,16
19,VisaNet,Info,info@quiputech.com,Activo,Pago Web,511555740,PRO BOCA,20511555729,SOLES,5814,A,913034815,JESUSV.PROBOCA@GMAIL.COM,Autorizacion,0,0,0,0,1,1,,,Activo,20511555729,PRO BOCA,,A,5814,IMP_MONTO_MIN_OPERACION,0.2,IMP_MONTO_MAX_OPERACION,99999,1,16
19,VisaNet,Info,info@quiputech.com,Activo,Pago Web,511670204,LA TARIMA,20511670234,SOLES,5813,B,6274377,,Autorizacion,0,0,0,0,1,1,,,Activo,20511670234,LA TARIMA,,B,5813,IMP_MONTO_MIN_OPERACION,0.2,IMP_MONTO_MAX_OPERACION,99999,1,16
19,VisaNet,Info,info@quiputech.com,Activo,Pago Web,511555739,LAGOM KITCHEN Y CANTEEN,20511555729,SOLES,5814,B,983728803,INFO@FIKA.PE,Autorizacion,0,0,0,0,1,1,,,Activo,20511555729,LAGOM KITCHEN Y CANTEEN,,B,5814,IMP_MONTO_MIN_OPERACION,0.2,IMP_MONTO_MAX_OPERACION,99999,1,16
19,VisaNet,Info,info@quiputech.com,Activo,Pago Web,511555741,PRO BOCA QR,20511555729,SOLES,5814,A,994216741,VERONICA@PRO-BOCA.NET,Autorizacion,0,0,0,0,1,1,,,Activo,20511555729,PRO BOCA QR,,A,5814,IMP_MONTO_MIN_OPERACION,0.2,IMP_MONTO_MAX_OPERACION,99999,1,16
19,VisaNet,Info,info@quiputech.com,Activo,Pago Web,517441709,MARIA ALMENARA,20517441792,SOLES,5462,C,942097292,NORBEGOSO@MARIAALMENARA.PE,Autorizacion,0,0,0,0,1,1,,,Activo,20517441792,MARIA ALMENARA,,C,5462,IMP_MONTO_MIN_OPERACION,0.2,IMP_MONTO_MAX_OPERACION,99999,1,16
19,VisaNet,Info,info@quiputech.com,Activo,Pago Web,519416809,TYT ALISER,20519416833,SOLES,5812,B,4291949,,Autorizacion,0,0,0,0,1,1,,,Activo,20519416833,TYT ALISER,,B,5812,IMP_MONTO_MIN_OPERACION,0.2,IMP_MONTO_MAX_OPERACION,99999,1,16
19,VisaNet,Info,info@quiputech.com,Activo,Pago Web,519416808,T Y T ALISER,20519416833,SOLES,5812,B,4792919,,Autorizacion,0,0,0,0,1,1,,,Activo,20519416833,T Y T ALISER,,B,5812,IMP_MONTO_MIN_OPERACION,0.2,IMP_MONTO_MAX_OPERACION,99999,1,16
19,VisaNet,Info,info@quiputech.com,Activo,Pago Web,517441708,MARIA ALMENARA,20517441792,SOLES,5462,B,2482828,MA@MARIAELMENARA.PE,Autorizacion,0,0,0,0,1,1,,,Activo,20517441792,MARIA ALMENARA,,B,5462,IMP_MONTO_MIN_OPERACION,0.2,IMP_MONTO_MAX_OPERACION,99999,1,16
19,VisaNet,Info,info@quiputech.com,Activo,Pago Web,519416807,TYT ALISER EIRL,20519416833,SOLES,5812,B,985428252,ROXANATELLO@HOTMAIL.COM,Autorizacion,0,0,0,0,1,1,,,Activo,20519416833,TYT ALISER EIRL,,B,5812,IMP_MONTO_MIN_OPERACION,0.2,IMP_MONTO_MAX_OPERACION,99999,1,16
19,VisaNet,Info,info@quiputech.com,Activo,Pago Web,545205202,FADELGU,20545205221,SOLES,7538,D,977209848,MARIZADOS.FADELGU.SAC@GMAIL.COM,Autorizacion,0,0,0,0,1,1,,,Activo,20545205221,FADELGU,,D,7538,IMP_MONTO_MIN_OPERACION,0.2,IMP_MONTO_MAX_OPERACION,99999,1,16
19,VisaNet,Info,info@quiputech.com,Activo,Pago Web,543307602,ADLOG SAC,20543307662,SOLES,7311,D,989103762,PARISVISAYOGI@GMAIL.COM,Autorizacion,0,0,0,0,1,1,,,Activo,20543307662,ADLOG SAC,,D,7311,IMP_MONTO_MIN_OPERACION,0.2,IMP_MONTO_MAX_OPERACION,99999,1,16
19,VisaNet,Info,info@quiputech.com,Activo,Pago Web,544921405,BEE,20544921461,SOLES,7832,A,949303986,LDULANTO@BEE.COM.PE,Autorizacion,0,0,0,0,1,1,,,Activo,20544921461,BEE,,A,7832,IMP_MONTO_MIN_OPERACION,0.2,IMP_MONTO_MAX_OPERACION,99999,1,16
19,VisaNet,Info,info@quiputech.com,Activo,Pago Web,544921406,BEE,20544921461,SOLES,7832,D,4949335,LDULANTO@BEE.COM.PE,Autorizacion,0,0,0,0,1,1,,,Activo,20544921461,BEE,,D,7832,IMP_MONTO_MIN_OPERACION,0.2,IMP_MONTO_MAX_OPERACION,99999,1,16
19,VisaNet,Info,info@quiputech.com,Activo,Pago Web,544921404,BEE,20544921461,SOLES,7832,A,986332608,FAXL@YAHOO.COM,Autorizacion,0,0,0,0,1,1,,,Activo,20544921461,BEE,,A,7832,IMP_MONTO_MIN_OPERACION,0.2,IMP_MONTO_MAX_OPERACION,99999,1,16
19,VisaNet,Info,info@quiputech.com,Activo,Pago Web,547054702,FIERROS CAR 4X4,20547054769,SOLES,7538,D,5049507,FIERRO4X4@HOTMAIL.COM,Autorizacion,0,0,0,0,1,1,,,Activo,20547054769,FIERROS CAR 4X4,,D,7538,IMP_MONTO_MIN_OPERACION,0.2,IMP_MONTO_MAX_OPERACION,99999,1,16
19,VisaNet,Info,info@quiputech.com,Activo,Pago Web,548483006,FUNDACION OLI,20548483078,SOLES,8398,D,996894481,DIANA@OLIFOUNDATION.ORG,Autorizacion,0,0,0,0,1,1,,,Activo,20548483078,FUNDACION OLI,,D,8398,IMP_MONTO_MIN_OPERACION,0.2,IMP_MONTO_MAX_OPERACION,99999,1,16
19,VisaNet,Info,info@quiputech.com,Activo,Pago Web,565840107,ASTROMELIA,20565840135,SOLES,5992,D,947114417,ASTROMELIAFLORERIAONLINE@GMAIL.COM,Autorizacion,0,0,0,0,1,1,,,Activo,20565840135,ASTROMELIA,,D,5992,IMP_MONTO_MIN_OPERACION,0.2,IMP_MONTO_MAX_OPERACION,99999,1,16
19,VisaNet,Info,info@quiputech.com,Activo,Pago Web,563215102,PERSONALIZALO,20563215195,SOLES,5947,D,968162202,INFORMES@PERSONALIZALOPERU.COM,Autorizacion,0,0,0,0,1,1,,,Activo,20563215195,PERSONALIZALO,,D,5947,IMP_MONTO_MIN_OPERACION,0.2,IMP_MONTO_MAX_OPERACION,99999,1,16
19,VisaNet,Info,info@quiputech.com,Activo,Pago Web,555215004,PATTY PASTELERIA ARTESANA,20555215062,SOLES,5462,C,2413059,BVALDETTARO@PATTY.PE,Autorizacion,0,0,0,0,1,1,,,Activo,20555215062,PATTY PASTELERIA ARTESANA,,C,5462,IMP_MONTO_MIN_OPERACION,0.2,IMP_MONTO_MAX_OPERACION,99999,1,16
19,VisaNet,Info,info@quiputech.com,Activo,Pago Web,555215006,PATTY PASTELERIA ARTESANA,20555215062,SOLES,5462,C,945414155,LORENA.ARVAL@GMAIL.COM,Autorizacion,0,0,0,0,1,1,,,Activo,20555215062,PATTY PASTELERIA ARTESANA,,C,5462,IMP_MONTO_MIN_OPERACION,0.2,IMP_MONTO_MAX_OPERACION,99999,1,16
19,VisaNet,Info,info@quiputech.com,Activo,Pago Web,565840106,MPOS   ASTROMELIA,20565840135,SOLES,5992,D,946523181,MANU@ASTROMELIA.PE,Autorizacion,0,0,0,0,1,1,,,Activo,20565840135,MPOS   ASTROMELIA,,D,5992,IMP_MONTO_MIN_OPERACION,0.2,IMP_MONTO_MAX_OPERACION,99999,1,16
19,VisaNet,Info,info@quiputech.com,Activo,Pago Web,600586505,MARKET STATIONERY AND GIF,20600586573,SOLES,5947,C,945414155,VENTAS@MARKETSHOP.PE,Autorizacion,0,0,0,0,1,1,,,Activo,20600586573,MARKET STATIONERY AND GIF,,C,5947,IMP_MONTO_MIN_OPERACION,0.2,IMP_MONTO_MAX_OPERACION,99999,1,16
19,VisaNet,Info,info@quiputech.com,Activo,Pago Web,554749608,OH MY BAG,20554749667,SOLES,5699,D,999455998,QUIERO@OHMYBAG.PE,Autorizacion,0,0,0,0,1,1,,,Activo,20554749667,OH MY BAG,,D,5699,IMP_MONTO_MIN_OPERACION,0.2,IMP_MONTO_MAX_OPERACION,99999,1,16
19,VisaNet,Info,info@quiputech.com,Activo,Pago Web,555215005,PATTY PASTELERIA ARTESANA,20555215062,SOLES,5462,C,949021703,COMERCIAL@PATTY.PE,Autorizacion,0,0,0,0,1,1,,,Activo,20555215062,PATTY PASTELERIA ARTESANA,,C,5462,IMP_MONTO_MIN_OPERACION,0.2,IMP_MONTO_MAX_OPERACION,99999,1,16
19,VisaNet,Info,info@quiputech.com,Activo,Pago Web,554749609,OH MY BAG,20554749667,SOLES,5699,D,999455998,QUIERO@OHMYBAG.PE,Autorizacion,0,0,0,0,1,1,,,Activo,20554749667,OH MY BAG,,D,5699,IMP_MONTO_MIN_OPERACION,0.2,IMP_MONTO_MAX_OPERACION,99999,1,16
19,VisaNet,Info,info@quiputech.com,Activo,Pago Web,554749611,OH MY BAG,20554749667,SOLES,5699,D,999455998,QUIERO@OHMYBAG.PE,Autorizacion,0,0,0,0,1,1,,,Activo,20554749667,OH MY BAG,,D,5699,IMP_MONTO_MIN_OPERACION,0.2,IMP_MONTO_MAX_OPERACION,99999,1,16
19,VisaNet,Info,info@quiputech.com,Activo,Pago Web,554749610,OH MY BAG,20554749667,SOLES,5699,D,999455998,QUIERO@OHMYBAG.PE,Autorizacion,0,0,0,0,1,1,,,Activo,20554749667,OH MY BAG,,D,5699,IMP_MONTO_MIN_OPERACION,0.2,IMP_MONTO_MAX_OPERACION,99999,1,16
19,VisaNet,Info,info@quiputech.com,Activo,Pago Web,565570204,PICNIC COSAS DE BEBITOS,20565570243,SOLES,5641,C,959157293,MARIANA.ARESTEGUI@GMAIL.COM,Autorizacion,0,0,0,0,1,1,,,Activo,20565570243,PICNIC COSAS DE BEBITOS,,C,5641,IMP_MONTO_MIN_OPERACION,0.2,IMP_MONTO_MAX_OPERACION,99999,1,16
19,VisaNet,Info,info@quiputech.com,Activo,Pago Web,600215404,HUELLA VERDE,20600215401,SOLES,5812,D,991974326,LFMALAGA@HUELLAVERDEPERU.COM,Autorizacion,0,0,0,0,1,1,,,Activo,20600215401,HUELLA VERDE,,D,5812,IMP_MONTO_MIN_OPERACION,0.2,IMP_MONTO_MAX_OPERACION,99999,1,16
19,VisaNet,Info,info@quiputech.com,Activo,Pago Web,565840108,ASTROMELIA,20565840135,SOLES,5992,D,15018601,,Autorizacion,0,0,0,0,1,1,,,Activo,20565840135,ASTROMELIA,,D,5992,IMP_MONTO_MIN_OPERACION,0.2,IMP_MONTO_MAX_OPERACION,99999,1,16
19,VisaNet,Info,info@quiputech.com,Activo,Pago Web,600215405,HUELLA VERDE,20600215401,SOLES,5814,D,991974326,LFMALAGA@HUELLAVERDEPERU.COM,Autorizacion,0,0,0,0,1,1,,,Activo,20600215401,HUELLA VERDE,,D,5814,IMP_MONTO_MIN_OPERACION,0.2,IMP_MONTO_MAX_OPERACION,99999,1,16
19,VisaNet,Info,info@quiputech.com,Activo,Pago Web,600238007,BROTHER LIMA ESCUELA,20600238061,SOLES,8249,C,997127920,JULIO@BROTHERAD.COM,Autorizacion,0,0,0,0,1,1,,,Activo,20600238061,BROTHER LIMA ESCUELA,,C,8249,IMP_MONTO_MIN_OPERACION,0.2,IMP_MONTO_MAX_OPERACION,99999,1,16
19,VisaNet,Info,info@quiputech.com,Activo,Pago Web,601852303,FANTASY,20601852307,SOLES,7999,D,989131408,FANTASY_MAQUILLAJE@HOTMAIL.COM,Autorizacion,0,0,0,0,1,1,,,Activo,20601852307,FANTASY,,D,7999,IMP_MONTO_MIN_OPERACION,0.2,IMP_MONTO_MAX_OPERACION,99999,1,16
19,VisaNet,Info,info@quiputech.com,Activo,Pago Web,601892403,PISCO DISTRIBUIDORES SAC,20601892449,SOLES,5921,D,993549259,PISCO.DISTRIBUIDORES@GMAIL.COM,Autorizacion,0,0,0,0,1,1,,,Activo,20601892449,PISCO DISTRIBUIDORES SAC,,D,5921,IMP_MONTO_MIN_OPERACION,0.2,IMP_MONTO_MAX_OPERACION,99999,1,16
19,VisaNet,Info,info@quiputech.com,Activo,Pago Web,600238008,BROTHER LIMA ESCUELA DE C,20600238061,SOLES,8299,C,997127920,JULIO@BROTHERAD.COM,Autorizacion,0,0,0,0,1,1,,,Activo,20600238061,BROTHER LIMA ESCUELA DE C,,C,8299,IMP_MONTO_MIN_OPERACION,0.2,IMP_MONTO_MAX_OPERACION,99999,1,16
19,VisaNet,Info,info@quiputech.com,Activo,Pago Web,511555731,PRO BOCA,20511555729,SOLES,5812,A,994216741,VERONICA@PRO-BOCA.NET,Autorizacion,0,0,0,0,1,1,,,Activo,20511555729,PRO BOCA,,A,5812,IMP_MONTO_MIN_OPERACION,0.2,IMP_MONTO_MAX_OPERACION,99999,1,16
19,VisaNet,Info,info@quiputech.com,Activo,Pago Web,511555748,PRO BOCA,20511555729,SOLES,5814,A,973632898,,Autorizacion,0,0,0,0,1,1,,,Activo,20511555729,PRO BOCA,,A,5814,IMP_MONTO_MIN_OPERACION,0.2,IMP_MONTO_MAX_OPERACION,99999,1,16
19,VisaNet,Info,info@quiputech.com,Activo,Pago Web,600892704,BAO,20600892755,SOLES,5812,B,4834180,MIYASATOYEYA@GMAIL.COM,Autorizacion,0,0,0,0,1,1,,,Activo,20600892755,BAO,,B,5812,IMP_MONTO_MIN_OPERACION,0.2,IMP_MONTO_MAX_OPERACION,99999,1,16
19,VisaNet,Info,info@quiputech.com,Activo,Pago Web,602100602,BALTO,20602100651,SOLES,742,D,977894419,AJARUFE@BALTOPERU.COM,Autorizacion,0,0,0,0,1,1,,,Activo,20602100651,BALTO,,D,742,IMP_MONTO_MIN_OPERACION,0.2,IMP_MONTO_MAX_OPERACION,99999,1,16
19,VisaNet,Info,info@quiputech.com,Activo,Pago Web,601117804,SARCLETTI,20601117836,SOLES,5814,D,994297605,,Autorizacion,0,0,0,0,1,1,,,Activo,20601117836,SARCLETTI,,D,5814,IMP_MONTO_MIN_OPERACION,0.2,IMP_MONTO_MAX_OPERACION,99999,1,16
19,VisaNet,Info,info@quiputech.com,Activo,Pago Web,601443812,TABATHA SHOES,20601443873,SOLES,5651,C,947379814,SAMANTHA_2307@HOTMAIL.COM,Autorizacion,0,0,0,0,1,1,,,Activo,20601443873,TABATHA SHOES,,C,5651,IMP_MONTO_MIN_OPERACION,0.2,IMP_MONTO_MAX_OPERACION,99999,1,16
19,VisaNet,Info,info@quiputech.com,Activo,Pago Web,601201105,DALESA SCRAPBOOKING CRAF,20601201128,SOLES,5399,D,941895541,DALESASCRAPBOOKING@HOTMAIL.COM,Autorizacion,0,0,0,0,1,1,,,Activo,20601201128,DALESA SCRAPBOOKING CRAF,,D,5399,IMP_MONTO_MIN_OPERACION,0.2,IMP_MONTO_MAX_OPERACION,99999,1,16
19,VisaNet,Info,info@quiputech.com,Activo,Pago Web,602637304,THE CHOCOLATE BRAWNIE,20602637353,SOLES,5441,D,939170630,VENTAS@THECHOCOLATEBRAWNIE.COM,Autorizacion,0,0,0,0,1,1,,,Activo,20602637353,THE CHOCOLATE BRAWNIE,,D,5441,IMP_MONTO_MIN_OPERACION,0.2,IMP_MONTO_MAX_OPERACION,99999,1,16
19,VisaNet,Info,info@quiputech.com,Activo,Pago Web,603360803,CAFETERIA DONA MARIA 1,20603360827,SOLES,5814,D,986669076,JESSCYKA.JESUS@GMAIL.COM,Autorizacion,0,0,0,0,1,1,,,Activo,20603360827,CAFETERIA DONA MARIA 1,,D,5814,IMP_MONTO_MIN_OPERACION,0.2,IMP_MONTO_MAX_OPERACION,99999,1,16
19,VisaNet,Info,info@quiputech.com,Activo,Pago Web,601201106,DALESA SCRAPBOOKING CRAFT,20601201128,SOLES,5399,D,941895541,DALESASCRAPBOOKING@HOTMAIL.COM,Autorizacion,0,0,0,0,1,1,,,Activo,20601201128,DALESA SCRAPBOOKING CRAFT,,D,5399,IMP_MONTO_MIN_OPERACION,0.2,IMP_MONTO_MAX_OPERACION,99999,1,16
19,VisaNet,Info,info@quiputech.com,Activo,Pago Web,602663504,ENIGMATIK,20602663583,SOLES,5945,D,992550351,MARIELQR@GMAIL.COM,Autorizacion,0,0,0,0,1,1,,,Activo,20602663583,ENIGMATIK,,D,5945,IMP_MONTO_MIN_OPERACION,0.2,IMP_MONTO_MAX_OPERACION,99999,1,16
19,VisaNet,Info,info@quiputech.com,Activo,Pago Web,603261002,DETAMOUR,20603261047,SOLES,5992,D,997934501,FRANCO.ZEVALLOS@DETAMOUR.PE,Autorizacion,0,0,0,0,1,1,,,Activo,20603261047,DETAMOUR,,D,5992,IMP_MONTO_MIN_OPERACION,0.2,IMP_MONTO_MAX_OPERACION,99999,1,16
19,VisaNet,Info,info@quiputech.com,Activo,Pago Web,601897802,MASDELI,20601897807,SOLES,5451,D,980445211,ROMERO.EDWIN@PUCP.EDU.PE,Autorizacion,0,0,0,0,1,1,,,Activo,20601897807,MASDELI,,D,5451,IMP_MONTO_MIN_OPERACION,0.2,IMP_MONTO_MAX_OPERACION,99999,1,16
19,VisaNet,Info,info@quiputech.com,Activo,Pago Web,602512207,TRADICIONES AREQUIPENAS,20602512224,SOLES,5812,B,999341634,,Autorizacion,0,0,0,0,1,1,,,Activo,20602512224,TRADICIONES AREQUIPENAS,,B,5812,IMP_MONTO_MIN_OPERACION,0.2,IMP_MONTO_MAX_OPERACION,99999,1,16
19,VisaNet,Info,info@quiputech.com,Activo,Pago Web,602512208,TRADICIONES AREQUIPENAS,20602512224,SOLES,5812,B,999341634,,Autorizacion,0,0,0,0,1,1,,,Activo,20602512224,TRADICIONES AREQUIPENAS,,B,5812,IMP_MONTO_MIN_OPERACION,0.2,IMP_MONTO_MAX_OPERACION,99999,1,16
19,VisaNet,Info,info@quiputech.com,Activo,Pago Web,602512205,TRADICIONES AREQUIPENAS,20602512224,SOLES,5812,B,999341634,,Autorizacion,0,0,0,0,1,1,,,Activo,20602512224,TRADICIONES AREQUIPENAS,,B,5812,IMP_MONTO_MIN_OPERACION,0.2,IMP_MONTO_MAX_OPERACION,99999,1,16
19,VisaNet,Info,info@quiputech.com,Activo,Pago Web,602512206,TRADICIONES AREQUIPENAS,20602512224,SOLES,5812,B,999341634,,Autorizacion,0,0,0,0,1,1,,,Activo,20602512224,TRADICIONES AREQUIPENAS,,B,5812,IMP_MONTO_MIN_OPERACION,0.2,IMP_MONTO_MAX_OPERACION,99999,1,16
19,VisaNet,Info,info@quiputech.com,Activo,Pago Web,602714602,MAMITA Y YO ,20602714676,SOLES,5651,D,960090040,MODA.MAMITAYYO@GMAIL.COM,Autorizacion,0,0,0,0,1,1,,,Activo,20602714676,MAMITA Y YO ,,D,5651,IMP_MONTO_MIN_OPERACION,0.2,IMP_MONTO_MAX_OPERACION,99999,1,16
19,VisaNet,Info,info@quiputech.com,Activo,Pago Web,602664203,BIOMECHANICS PHYSIO,20602664261,SOLES,8999,D,986017863,ROBERTO.CONTRECO@GMAIL.COM,Autorizacion,0,0,0,0,1,1,,,Activo,20602664261,BIOMECHANICS PHYSIO,,D,8999,IMP_MONTO_MIN_OPERACION,0.2,IMP_MONTO_MAX_OPERACION,99999,1,16
19,VisaNet,Info,info@quiputech.com,Activo,Pago Web,602688305,GET EAT,20602688373,SOLES,5814,D,943650612,REGGINA.ORELLANA@PUCP.PE,Autorizacion,0,0,0,0,1,1,,,Activo,20602688373,GET EAT,,D,5814,IMP_MONTO_MIN_OPERACION,0.2,IMP_MONTO_MAX_OPERACION,99999,1,16
19,VisaNet,Info,info@quiputech.com,Activo,Pago Web,602688304,GET EAT,20602688373,SOLES,5814,D,943650612,REGGINA.ORELLANA@PUCP.PE,Autorizacion,0,0,0,0,1,1,,,Activo,20602688373,GET EAT,,D,5814,IMP_MONTO_MIN_OPERACION,0.2,IMP_MONTO_MAX_OPERACION,99999,1,16
19,VisaNet,Info,info@quiputech.com,Activo,Pago Web,603209105,PASSLINE,20603209151,SOLES,7922,D,977765647,HEINZANDRE@PASSLINE.PE,Autorizacion,0,0,0,0,1,1,,,Activo,20603209151,PASSLINE,,D,7922,IMP_MONTO_MIN_OPERACION,0.2,IMP_MONTO_MAX_OPERACION,99999,1,16
19,VisaNet,Info,info@quiputech.com,Activo,Pago Web,600011004,ESTACION DE SERVICIO GAMA,20600011007,SOLES,5541,D,939388980,ADMINGAMARRA@GRUPOOY.COM,Autorizacion,0,0,0,0,1,1,,,Activo,20600011007,ESTACION DE SERVICIO GAMA,,D,5541,IMP_MONTO_MIN_OPERACION,0.2,IMP_MONTO_MAX_OPERACION,99999,1,16
19,VisaNet,Info,info@quiputech.com,Activo,Pago Web,905457403,CHOCOLITE,10105457435,SOLES,5411,D,953723449,HELENACHV@HOTMAIL.COM,Autorizacion,0,0,0,0,1,1,,,Activo,10105457435,CHOCOLITE,,D,5411,IMP_MONTO_MIN_OPERACION,0.2,IMP_MONTO_MAX_OPERACION,99999,1,16
19,VisaNet,Info,info@quiputech.com,Activo,Pago Web,508196408,PETROCENTRO YULIA SAC,20508196475,SOLES,5541,B,924007714,WCACELA@GRUPOESPINOZA.COM.PE,Autorizacion,0,0,0,0,1,1,,,Activo,20508196475,PETROCENTRO YULIA SAC,,B,5541,IMP_MONTO_MIN_OPERACION,0.2,IMP_MONTO_MAX_OPERACION,99999,1,16
19,VisaNet,Info,info@quiputech.com,Activo,Pago Web,563468606,FLORA Y FAUNA,20563468646,SOLES,5411,A,914682778,,Autorizacion,0,0,0,0,1,1,,,Activo,20563468646,FLORA Y FAUNA,,A,5411,IMP_MONTO_MIN_OPERACION,0.2,IMP_MONTO_MAX_OPERACION,99999,1,16
19,VisaNet,Info,info@quiputech.com,Activo,Pago Web,511584504,E S GERMANICO,20511584583,SOLES,5541,A,4467152,,Autorizacion,0,0,0,0,1,1,,,Activo,20511584583,E S GERMANICO,,A,5541,IMP_MONTO_MIN_OPERACION,0.2,IMP_MONTO_MAX_OPERACION,99999,1,16
19,VisaNet,Info,info@quiputech.com,Activo,Pago Web,601297702,EL BUEN SABOR,20601297702,SOLES,5812,A,13306689,elbuensabor_arenales@hotmail.com,Autorizacion,0,0,0,0,1,1,,,Activo,20601297702,EL BUEN SABOR,,A,5812,IMP_MONTO_MIN_OPERACION,0.2,IMP_MONTO_MAX_OPERACION,99999,1,16
19,VisaNet,Info,info@quiputech.com,Activo,Pago Web,137926704,SERVICENTRO LOS ROSALES,20137926742,SOLES,5541,B,2715058,,Autorizacion,0,0,0,0,1,1,,,Activo,20137926742,SERVICENTRO LOS ROSALES,,B,5541,IMP_MONTO_MIN_OPERACION,0.2,IMP_MONTO_MAX_OPERACION,99999,1,16
19,VisaNet,Info,info@quiputech.com,Activo,Pago Web,563468608,FLORA Y FAUNA SAC,20563468646,SOLES,5499,A,9999999,EFRAIN@PRODUSANA.COM,Autorizacion,0,0,0,0,1,1,,,Activo,20563468646,FLORA Y FAUNA SAC,,A,5499,IMP_MONTO_MIN_OPERACION,0.2,IMP_MONTO_MAX_OPERACION,99999,1,16
19,VisaNet,Info,info@quiputech.com,Activo,Pago Web,524110704,TIP TOP,20524110769,SOLES,5814,A,987321180,TIPTOP@SPEEDY.COM.PE,Autorizacion,0,0,0,0,1,1,,,Activo,20524110769,TIP TOP,,A,5814,IMP_MONTO_MIN_OPERACION,0.2,IMP_MONTO_MAX_OPERACION,99999,1,16
19,VisaNet,Info,info@quiputech.com,Activo,Pago Web,535832805,LA CHOLA DASSO,20535832880,SOLES,5814,A,2212138,ELPANDELACHOLA@GMAIL.COM,Autorizacion,0,0,0,0,1,1,,,Activo,20535832880,LA CHOLA DASSO,,A,5814,IMP_MONTO_MIN_OPERACION,0.2,IMP_MONTO_MAX_OPERACION,99999,1,16
19,VisaNet,Info,info@quiputech.com,Activo,Pago Web,975023203,ENANO SANGUCHERIA FSODA,10075023281,SOLES,5812,D,985799124,EL.TAMBO.ENANO.EIRL@GMAIL.COM,Autorizacion,0,0,0,0,1,1,,,Activo,10075023281,ENANO SANGUCHERIA FSODA,,D,5812,IMP_MONTO_MIN_OPERACION,0.2,IMP_MONTO_MAX_OPERACION,99999,1,16
19,VisaNet,Info,info@quiputech.com,Activo,Pago Web,502105602,SERVICIOS RIGAL,20502105613,SOLES,5541,A,4217226,,Autorizacion,0,0,0,0,1,1,,,Activo,20502105613,SERVICIOS RIGAL,,A,5541,IMP_MONTO_MIN_OPERACION,0.2,IMP_MONTO_MAX_OPERACION,99999,1,16
19,VisaNet,Info,info@quiputech.com,Activo,Pago Web,101148203,ROSTICERIA EL PERUANITO,20101148298,SOLES,5499,B,2412175,ELPERUANITO1959@HOTMAIL.COM,Autorizacion,0,0,0,0,1,1,,,Activo,20101148298,ROSTICERIA EL PERUANITO,,B,5499,IMP_MONTO_MIN_OPERACION,0.2,IMP_MONTO_MAX_OPERACION,99999,1,16
19,VisaNet,Info,info@quiputech.com,Activo,Pago Web,537230306,DON TITO SURCO,20537230399,SOLES,5812,A,6087309,ADMINISTRACION@DONTITO.PE,Autorizacion,0,0,0,0,1,1,,,Activo,20537230399,DON TITO SURCO,,A,5812,IMP_MONTO_MIN_OPERACION,0.2,IMP_MONTO_MAX_OPERACION,99999,1,16
19,VisaNet,Info,info@quiputech.com,Activo,Pago Web,601695503,NIFUSA SAC,20601695597,SOLES,5812,A,14610216,ADMINISTRACION@INDRESA.COM,Autorizacion,0,0,0,0,1,1,,,Activo,20601695597,NIFUSA SAC,,A,5812,IMP_MONTO_MIN_OPERACION,0.2,IMP_MONTO_MAX_OPERACION,99999,1,16
19,VisaNet,Info,info@quiputech.com,Activo,Pago Web,563468607,FLORA Y FAUNA,20563468646,SOLES,5499,B,986915850,SINCORREO@SINCORREO.COM,Autorizacion,0,0,0,0,1,1,,,Activo,20563468646,FLORA Y FAUNA,,B,5499,IMP_MONTO_MIN_OPERACION,0.2,IMP_MONTO_MAX_OPERACION,99999,1,16
19,VisaNet,Info,info@quiputech.com,Activo,Pago Web,556546906,QINCHA RESTOBAR,20556546976,SOLES,5812,B,7156518,M.MONTALVO@QINCHA.PE,Autorizacion,0,0,0,0,1,1,,,Activo,20556546976,QINCHA RESTOBAR,,B,5812,IMP_MONTO_MIN_OPERACION,0.2,IMP_MONTO_MAX_OPERACION,99999,1,16
19,VisaNet,Info,info@quiputech.com,Activo,Pago Web,549015602,BUENAVISTA CAFE LIMA,20549015698,SOLES,5814,B,4455736,,Autorizacion,0,0,0,0,1,1,,,Activo,20549015698,BUENAVISTA CAFE LIMA,,B,5814,IMP_MONTO_MIN_OPERACION,0.2,IMP_MONTO_MAX_OPERACION,99999,1,16
19,VisaNet,Info,info@quiputech.com,Activo,Pago Web,523807106,RST BAR MAGDALENA VIEJA,20523807154,SOLES,5812,A,6539783,,Autorizacion,0,0,0,0,1,1,,,Activo,20523807154,RST BAR MAGDALENA VIEJA,,A,5812,IMP_MONTO_MIN_OPERACION,0.2,IMP_MONTO_MAX_OPERACION,99999,1,16
19,VisaNet,Info,info@quiputech.com,Activo,Pago Web,536401210,PUKU PUKU CAFE,20536401254,SOLES,5814,B,2542666,EVELASQUEZ@GLOVENATURAL.COM,Autorizacion,0,0,0,0,1,1,,,Activo,20536401254,PUKU PUKU CAFE,,B,5814,IMP_MONTO_MIN_OPERACION,0.2,IMP_MONTO_MAX_OPERACION,99999,1,16
19,VisaNet,Info,info@quiputech.com,Activo,Pago Web,537718003,CAFETERIAS RIPA SA,20537718073,SOLES,5812,A,4354032,,Autorizacion,0,0,0,0,1,1,,,Activo,20537718073,CAFETERIAS RIPA SA,,A,5812,IMP_MONTO_MIN_OPERACION,0.2,IMP_MONTO_MAX_OPERACION,99999,1,16
19,VisaNet,Info,info@quiputech.com,Activo,Pago Web,507562302,PROYECTO SEIS SA,20507562389,SOLES,5812,D,14762306,SANBORJA.RESTAURANTES@GMAIL.COM,Autorizacion,0,0,0,0,1,1,,,Activo,20507562389,PROYECTO SEIS SA,,D,5812,IMP_MONTO_MIN_OPERACION,0.2,IMP_MONTO_MAX_OPERACION,99999,1,16
19,VisaNet,Info,info@quiputech.com,Activo,Pago Web,505322608,PRIMOS CHICKEN BAR,20505322674,SOLES,5812,A,4454042,RAFAELMADUENO@HOTMAIL.COM,Autorizacion,0,0,0,0,1,1,,,Activo,20505322674,PRIMOS CHICKEN BAR,,A,5812,IMP_MONTO_MIN_OPERACION,0.2,IMP_MONTO_MAX_OPERACION,99999,1,16
19,VisaNet,Info,info@quiputech.com,Activo,Pago Web,535832804,EL PAN DE LA CHOLA,20535832880,SOLES,5814,A,2212138,,Autorizacion,0,0,0,0,1,1,,,Activo,20535832880,EL PAN DE LA CHOLA,,A,5814,IMP_MONTO_MIN_OPERACION,0.2,IMP_MONTO_MAX_OPERACION,99999,1,16
19,VisaNet,Info,info@quiputech.com,Activo,Pago Web,507762802,SANDWICHES MONSTRUOS,20507762809,SOLES,5814,B,4771346,,Autorizacion,0,0,0,0,1,1,,,Activo,20507762809,SANDWICHES MONSTRUOS,,B,5814,IMP_MONTO_MIN_OPERACION,0.2,IMP_MONTO_MAX_OPERACION,99999,1,16
19,VisaNet,Info,info@quiputech.com,Activo,Pago Web,601704405,CHIFA CHUNG YION,20601704464,SOLES,5812,A,2476919,JTONGLUNA54@GMAIL.COM,Autorizacion,0,0,0,0,1,1,,,Activo,20601704464,CHIFA CHUNG YION,,A,5812,IMP_MONTO_MIN_OPERACION,0.2,IMP_MONTO_MAX_OPERACION,99999,1,16
19,VisaNet,Info,info@quiputech.com,Activo,Pago Web,298736802,E S  LA MAR PECSA,20298736820,SOLES,5541,B,4647810,,Autorizacion,0,0,0,0,1,1,,,Activo,20298736820,E S  LA MAR PECSA,,B,5541,IMP_MONTO_MIN_OPERACION,0.2,IMP_MONTO_MAX_OPERACION,99999,1,16
19,VisaNet,Info,info@quiputech.com,Activo,Pago Web,265564702,EL BUEN SABOR BENAVIDES,15265564736,SOLES,5812,A,2731164,BROS526@HOTMAIL.COM,Autorizacion,0,0,0,0,1,1,,,Activo,15265564736,EL BUEN SABOR BENAVIDES,,A,5812,IMP_MONTO_MIN_OPERACION,0.2,IMP_MONTO_MAX_OPERACION,99999,1,16
19,VisaNet,Info,info@quiputech.com,Activo,Pago Web,511918503,AYAHUASCA,20511918546,SOLES,5812,P,12476751,,Autorizacion,0,0,0,0,1,1,,,Activo,20511918546,AYAHUASCA,,P,5812,IMP_MONTO_MIN_OPERACION,0.2,IMP_MONTO_MAX_OPERACION,99999,1,16
19,VisaNet,Info,info@quiputech.com,Activo,Pago Web,509778903,LA CROSSARIOLE,20509778974,SOLES,5812,A,4640335,,Autorizacion,0,0,0,0,1,1,,,Activo,20509778974,LA CROSSARIOLE,,A,5812,IMP_MONTO_MIN_OPERACION,0.2,IMP_MONTO_MAX_OPERACION,99999,1,16
19,VisaNet,Info,info@quiputech.com,Activo,Pago Web,548921805,JET MARKET DELIVERY,20548921873,SOLES,5411,A,4461515,JETMARKET-CONTABILIDAD@HOTMAIL.COM,Autorizacion,0,0,0,0,1,1,,,Activo,20548921873,JET MARKET DELIVERY,,A,5411,IMP_MONTO_MIN_OPERACION,0.2,IMP_MONTO_MAX_OPERACION,99999,1,16
19,VisaNet,Info,info@quiputech.com,Activo,Pago Web,100315702,HAITI,20100315751,SOLES,5812,A,4450539,,Autorizacion,0,0,0,0,1,1,,,Activo,20100315751,HAITI,,A,5812,IMP_MONTO_MIN_OPERACION,0.2,IMP_MONTO_MAX_OPERACION,99999,1,16
19,VisaNet,Info,info@quiputech.com,Activo,Pago Web,600318302,LMC COMBUSTIBLES,20600318366,SOLES,5541,B,2052370,,Autorizacion,0,0,0,0,1,1,,,Activo,20600318366,LMC COMBUSTIBLES,,B,5541,IMP_MONTO_MIN_OPERACION,0.2,IMP_MONTO_MAX_OPERACION,99999,1,16
19,VisaNet,Info,info@quiputech.com,Activo,Pago Web,546941909,CAVA RESTO BAR,20546941991,SOLES,5812,C,991660372,MZULES32@GMAIL.COM,Autorizacion,0,0,0,0,1,1,,,Activo,20546941991,CAVA RESTO BAR,,C,5812,IMP_MONTO_MIN_OPERACION,0.2,IMP_MONTO_MAX_OPERACION,99999,1,16
19,VisaNet,Info,info@quiputech.com,Activo,Pago Web,902764403,PERU MASTER GRILL,10402764444,SOLES,5812,C,949132130,ALFONSOABAD07@GMAIL.COM,Autorizacion,0,0,0,0,1,1,,,Activo,10402764444,PERU MASTER GRILL,,C,5812,IMP_MONTO_MIN_OPERACION,0.2,IMP_MONTO_MAX_OPERACION,99999,1,16
19,VisaNet,Info,info@quiputech.com,Activo,Pago Web,601588104,CASINO MAMBO JAMBO,20601588120,SOLES,7995,A,4366422,XXXXXX@HOTMAIL.COM,Autorizacion,0,0,0,0,1,1,,,Activo,20601588120,CASINO MAMBO JAMBO,,A,7995,IMP_MONTO_MIN_OPERACION,0.2,IMP_MONTO_MAX_OPERACION,99999,1,16
19,VisaNet,Info,info@quiputech.com,Activo,Pago Web,552228504,SUBWAY DIAGONAL,20552228511,SOLES,5812,B,2378267,ADGASTROBIZ@GMAIL.COM,Autorizacion,0,0,0,0,1,1,,,Activo,20552228511,SUBWAY DIAGONAL,,B,5812,IMP_MONTO_MIN_OPERACION,0.2,IMP_MONTO_MAX_OPERACION,99999,1,16
19,VisaNet,Info,info@quiputech.com,Activo,Pago Web,603357502,AVS SAC,20603357567,SOLES,5541,D,12653616,TERESAPEAL@HOTMAIL.COM,Autorizacion,0,0,0,0,1,1,,,Activo,20603357567,AVS SAC,,D,5541,IMP_MONTO_MIN_OPERACION,0.2,IMP_MONTO_MAX_OPERACION,99999,1,16
19,VisaNet,Info,info@quiputech.com,Activo,Pago Web,991123103,MARKET DON IGNACIO DV,10091123105,SOLES,5411,B,3655433,,Autorizacion,0,0,0,0,1,1,,,Activo,10091123105,MARKET DON IGNACIO DV,,B,5411,IMP_MONTO_MIN_OPERACION,0.2,IMP_MONTO_MAX_OPERACION,99999,1,16
19,VisaNet,Info,info@quiputech.com,Activo,Pago Web,601307502,GRIFO SHELL,20601307597,SOLES,5541,D,964398080,SECAINSA@HOTMAIL.COM,Autorizacion,0,0,0,0,1,1,,,Activo,20601307597,GRIFO SHELL,,D,5541,IMP_MONTO_MIN_OPERACION,0.2,IMP_MONTO_MAX_OPERACION,99999,1,16
19,VisaNet,Info,info@quiputech.com,Activo,Pago Web,601824206,VIENA,20601824265,SOLES,5812,P,946142157,XXX@HOTMAIL.COM,Autorizacion,0,0,0,0,1,1,,,Activo,20601824265,VIENA,,P,5812,IMP_MONTO_MIN_OPERACION,0.2,IMP_MONTO_MAX_OPERACION,99999,1,16
19,VisaNet,Info,info@quiputech.com,Activo,Pago Web,502469602,FERGRI SAC,20502469658,SOLES,5541,A,4775210,,Autorizacion,0,0,0,0,1,1,,,Activo,20502469658,FERGRI SAC,,A,5541,IMP_MONTO_MIN_OPERACION,0.2,IMP_MONTO_MAX_OPERACION,99999,1,16
19,VisaNet,Info,info@quiputech.com,Activo,Pago Web,213529703,GLOTONS 24 HORAS,20213529774,SOLES,5814,A,2421929,,Autorizacion,0,0,0,0,1,1,,,Activo,20213529774,GLOTONS 24 HORAS,,A,5814,IMP_MONTO_MIN_OPERACION,0.2,IMP_MONTO_MAX_OPERACION,99999,1,16
19,VisaNet,Info,info@quiputech.com,Activo,Pago Web,537751903,POLLERIA SAN MARTIN,20537751950,SOLES,5812,A,2632202,,Autorizacion,0,0,0,0,1,1,,,Activo,20537751950,POLLERIA SAN MARTIN,,A,5812,IMP_MONTO_MIN_OPERACION,0.2,IMP_MONTO_MAX_OPERACION,99999,1,16
19,VisaNet,Info,info@quiputech.com,Activo,Pago Web,602310703,PARRILLADAS EL HORNERO,20602310711,SOLES,5812,A,981168725,ADMINISTRACION@ELHORNERODOSDEMAYOSI.COM,Autorizacion,0,0,0,0,1,1,,,Activo,20602310711,PARRILLADAS EL HORNERO,,A,5812,IMP_MONTO_MIN_OPERACION,0.2,IMP_MONTO_MAX_OPERACION,99999,1,16
19,VisaNet,Info,info@quiputech.com,Activo,Pago Web,521909803,OCEANIKA RESTAURANT DV,20521909839,SOLES,5812,A,7156820,,Autorizacion,0,0,0,0,1,1,,,Activo,20521909839,OCEANIKA RESTAURANT DV,,A,5812,IMP_MONTO_MIN_OPERACION,0.2,IMP_MONTO_MAX_OPERACION,99999,1,16
19,VisaNet,Info,info@quiputech.com,Activo,Pago Web,522585602,CHIFA FONG LOY,20522585611,SOLES,5812,A,3484460,CHIFAFUNGLOY@GMAIL.COM,Autorizacion,0,0,0,0,1,1,,,Activo,20522585611,CHIFA FONG LOY,,A,5812,IMP_MONTO_MIN_OPERACION,0.2,IMP_MONTO_MAX_OPERACION,99999,1,16
19,VisaNet,Info,info@quiputech.com,Activo,Pago Web,552935009,COMMA,20552935030,SOLES,5812,A,4218485,SDYER@COMMA.PE,Autorizacion,0,0,0,0,1,1,,,Activo,20552935030,COMMA,,A,5812,IMP_MONTO_MIN_OPERACION,0.2,IMP_MONTO_MAX_OPERACION,99999,1,16
19,VisaNet,Info,info@quiputech.com,Activo,Pago Web,937982102,MARKET DENIS,10737982110,SOLES,5499,B,12663405,,Autorizacion,0,0,0,0,1,1,,,Activo,10737982110,MARKET DENIS,,B,5499,IMP_MONTO_MIN_OPERACION,0.2,IMP_MONTO_MAX_OPERACION,99999,1,16
19,VisaNet,Info,info@quiputech.com,Activo,Pago Web,554900402,DON TITO DELIVERY,20554900403,SOLES,5812,A,6087309,ADMSANBORJA@DONTITO.PE,Autorizacion,0,0,0,0,1,1,,,Activo,20554900403,DON TITO DELIVERY,,A,5812,IMP_MONTO_MIN_OPERACION,0.2,IMP_MONTO_MAX_OPERACION,99999,1,16
19,VisaNet,Info,info@quiputech.com,Activo,Pago Web,600736002,CREMOLADAS CURICH,20600736010,SOLES,5814,D,981163705,GERENCIA@CREMOLADASCURICH.COM,Autorizacion,0,0,0,0,1,1,,,Activo,20600736010,CREMOLADAS CURICH,,D,5814,IMP_MONTO_MIN_OPERACION,0.2,IMP_MONTO_MAX_OPERACION,99999,1,16
19,VisaNet,Info,info@quiputech.com,Activo,Pago Web,602369707,LONGHORN,20602369782,SOLES,5812,D,4350343,CONTA.SANBORJA@LONGHORN.COM.PE,Autorizacion,0,0,0,0,1,1,,,Activo,20602369782,LONGHORN,,D,5812,IMP_MONTO_MIN_OPERACION,0.2,IMP_MONTO_MAX_OPERACION,99999,1,16
19,VisaNet,Info,info@quiputech.com,Activo,Pago Web,549730704,MULTIMARKET TRES MARIAS,20549730711,SOLES,5411,B,4376441,EDDY@PINTAMAR.PE,Autorizacion,0,0,0,0,1,1,,,Activo,20549730711,MULTIMARKET TRES MARIAS,,B,5411,IMP_MONTO_MIN_OPERACION,0.2,IMP_MONTO_MAX_OPERACION,99999,1,16
19,VisaNet,Info,info@quiputech.com,Activo,Pago Web,601211403,LA CAFFETTERIA,20601211433,SOLES,5812,B,936080044,,Autorizacion,0,0,0,0,1,1,,,Activo,20601211433,LA CAFFETTERIA,,B,5812,IMP_MONTO_MIN_OPERACION,0.2,IMP_MONTO_MAX_OPERACION,99999,1,16
19,VisaNet,Info,info@quiputech.com,Activo,Pago Web,602122709,LITTLE CAESARS PIZZA,20602122779,SOLES,5812,D,936376895,0,Autorizacion,0,0,0,0,1,1,,,Activo,20602122779,LITTLE CAESARS PIZZA,,D,5812,IMP_MONTO_MIN_OPERACION,0.2,IMP_MONTO_MAX_OPERACION,99999,1,16
19,VisaNet,Info,info@quiputech.com,Activo,Pago Web,922943502,MINIMARKET NORMITA,10422943515,SOLES,5411,D,921785895,PERCYLTY@GMAIL.COM,Autorizacion,0,0,0,0,1,1,,,Activo,10422943515,MINIMARKET NORMITA,,D,5411,IMP_MONTO_MIN_OPERACION,0.2,IMP_MONTO_MAX_OPERACION,99999,1,16
19,VisaNet,Info,info@quiputech.com,Activo,Pago Web,547207002,HELADERIA SPECIALE,20547207000,SOLES,5499,C,14616421,,Autorizacion,0,0,0,0,1,1,,,Activo,20547207000,HELADERIA SPECIALE,,C,5499,IMP_MONTO_MIN_OPERACION,0.2,IMP_MONTO_MAX_OPERACION,99999,1,16
19,VisaNet,Info,info@quiputech.com,Activo,Pago Web,516577403,LAS CUATRO ESTACIONES,20516577488,SOLES,5812,A,2262391,,Autorizacion,0,0,0,0,1,1,,,Activo,20516577488,LAS CUATRO ESTACIONES,,A,5812,IMP_MONTO_MIN_OPERACION,0.2,IMP_MONTO_MAX_OPERACION,99999,1,16
19,VisaNet,Info,info@quiputech.com,Activo,Pago Web,600390106,STREET CHICKEN Y BEEF,20600390105,SOLES,5812,D,931085314,,Autorizacion,0,0,0,0,1,1,,,Activo,20600390105,STREET CHICKEN Y BEEF,,D,5812,IMP_MONTO_MIN_OPERACION,0.2,IMP_MONTO_MAX_OPERACION,99999,1,16
19,VisaNet,Info,info@quiputech.com,Activo,Pago Web,556199002,OFIYDEPAS SAC,20556199052,SOLES,5812,A,7110049,SISTEMAS@GRUPOCASAFUERTE.COM.PE,Autorizacion,0,0,0,0,1,1,,,Activo,20556199052,OFIYDEPAS SAC,,A,5812,IMP_MONTO_MIN_OPERACION,0.2,IMP_MONTO_MAX_OPERACION,99999,1,16
19,VisaNet,Info,info@quiputech.com,Activo,Pago Web,565625605,D SALA CAFFE,20565625676,SOLES,5814,B,993956456,AS@DSALACAFFE.COM,Autorizacion,0,0,0,0,1,1,,,Activo,20565625676,D SALA CAFFE,,B,5814,IMP_MONTO_MIN_OPERACION,0.2,IMP_MONTO_MAX_OPERACION,99999,1,16
19,VisaNet,Info,info@quiputech.com,Activo,Pago Web,502183203,BODEGA D THOMAS,20502183258,SOLES,5462,B,2640430,,Autorizacion,0,0,0,0,1,1,,,Activo,20502183258,BODEGA D THOMAS,,B,5462,IMP_MONTO_MIN_OPERACION,0.2,IMP_MONTO_MAX_OPERACION,99999,1,16
19,VisaNet,Info,info@quiputech.com,Activo,Pago Web,509496209,E S EL AVION,20509496219,SOLES,5541,B,2259610,,Autorizacion,0,0,0,0,1,1,,,Activo,20509496219,E S EL AVION,,B,5541,IMP_MONTO_MIN_OPERACION,0.2,IMP_MONTO_MAX_OPERACION,99999,1,16
19,VisaNet,Info,info@quiputech.com,Activo,Pago Web,547566203,DEPILZONE,20547566239,SOLES,7298,A,4223926,,Autorizacion,0,0,0,0,1,1,,,Activo,20547566239,DEPILZONE,,A,7298,IMP_MONTO_MIN_OPERACION,0.2,IMP_MONTO_MAX_OPERACION,99999,1,16
19,VisaNet,Info,info@quiputech.com,Activo,Pago Web,536327912,AROMAS CAFE DELICATESSEN,20536327933,SOLES,5814,C,996007322,PBERNAL@AROMAS.COM.PE,Autorizacion,0,0,0,0,1,1,,,Activo,20536327933,AROMAS CAFE DELICATESSEN,,C,5814,IMP_MONTO_MIN_OPERACION,0.2,IMP_MONTO_MAX_OPERACION,99999,1,16
19,VisaNet,Info,info@quiputech.com,Activo,Pago Web,515160804,RESTAURANT EL TRONCO DV,20515160877,SOLES,5812,A,5780614,,Autorizacion,0,0,0,0,1,1,,,Activo,20515160877,RESTAURANT EL TRONCO DV,,A,5812,IMP_MONTO_MIN_OPERACION,0.2,IMP_MONTO_MAX_OPERACION,99999,1,16
19,VisaNet,Info,info@quiputech.com,Activo,Pago Web,548921806,BODEGAS PERUANA DELIVERY,20548921873,SOLES,5411,A,4440829,GLORIATITO70@HOTMAIL.COM,Autorizacion,0,0,0,0,1,1,,,Activo,20548921873,BODEGAS PERUANA DELIVERY,,A,5411,IMP_MONTO_MIN_OPERACION,0.2,IMP_MONTO_MAX_OPERACION,99999,1,16
19,VisaNet,Info,info@quiputech.com,Activo,Pago Web,523318906,MARIATE PASTELERIA FINA,20523318978,SOLES,5462,A,2713335,PASTELERIAMARIATE@GMAIL.COM,Autorizacion,0,0,0,0,1,1,,,Activo,20523318978,MARIATE PASTELERIA FINA,,A,5462,IMP_MONTO_MIN_OPERACION,0.2,IMP_MONTO_MAX_OPERACION,99999,1,16
19,VisaNet,Info,info@quiputech.com,Activo,Pago Web,602265006,SETAS GOURMET,20602265006,SOLES,5812,C,12715059,,Autorizacion,0,0,0,0,1,1,,,Activo,20602265006,SETAS GOURMET,,C,5812,IMP_MONTO_MIN_OPERACION,0.2,IMP_MONTO_MAX_OPERACION,99999,1,16
19,VisaNet,Info,info@quiputech.com,Activo,Pago Web,600701702,EL BUEN SABOR,20600701747,SOLES,5812,B,4760181,HENGHUI@HOTMAIL.COM,Autorizacion,0,0,0,0,1,1,,,Activo,20600701747,EL BUEN SABOR,,B,5812,IMP_MONTO_MIN_OPERACION,0.2,IMP_MONTO_MAX_OPERACION,99999,1,16
19,VisaNet,Info,info@quiputech.com,Activo,Pago Web,601534810,WINGMAN ALITAS INC,20601534879,SOLES,5812,A,963976769,JOSE.DALY@WINGMAN.PE,Autorizacion,0,0,0,0,1,1,,,Activo,20601534879,WINGMAN ALITAS INC,,A,5812,IMP_MONTO_MIN_OPERACION,0.2,IMP_MONTO_MAX_OPERACION,99999,1,16
19,VisaNet,Info,info@quiputech.com,Activo,Pago Web,140519402,PUB ALEMAN,20140519457,SOLES,5812,B,14440148,,Autorizacion,0,0,0,0,1,1,,,Activo,20140519457,PUB ALEMAN,,B,5812,IMP_MONTO_MIN_OPERACION,0.2,IMP_MONTO_MAX_OPERACION,99999,1,16
19,VisaNet,Info,info@quiputech.com,Activo,Pago Web,538016905,EL ENANO SANGUCHERIA II,20538016927,SOLES,5814,D,12747610,,Autorizacion,0,0,0,0,1,1,,,Activo,20538016927,EL ENANO SANGUCHERIA II,,D,5814,IMP_MONTO_MIN_OPERACION,0.2,IMP_MONTO_MAX_OPERACION,99999,1,16
19,VisaNet,Info,info@quiputech.com,Activo,Pago Web,461681102,LA PREFERIDA,20461681191,SOLES,5812,A,4455180,,Autorizacion,0,0,0,0,1,1,,,Activo,20461681191,LA PREFERIDA,,A,5812,IMP_MONTO_MIN_OPERACION,0.2,IMP_MONTO_MAX_OPERACION,99999,1,16
19,VisaNet,Info,info@quiputech.com,Activo,Pago Web,563145403,LA ISLA ESCONDIDA,20563145472,SOLES,5812,B,923531115,,Autorizacion,0,0,0,0,1,1,,,Activo,20563145472,LA ISLA ESCONDIDA,,B,5812,IMP_MONTO_MIN_OPERACION,0.2,IMP_MONTO_MAX_OPERACION,99999,1,16
19,VisaNet,Info,info@quiputech.com,Activo,Pago Web,566545402,CHIFA WANG XIAG YUAN,20566545421,SOLES,5812,B,2240743,VIGOABOGADOS@HOTMAIL.COM,Autorizacion,0,0,0,0,1,1,,,Activo,20566545421,CHIFA WANG XIAG YUAN,,B,5812,IMP_MONTO_MIN_OPERACION,0.2,IMP_MONTO_MAX_OPERACION,99999,1,16
19,VisaNet,Info,info@quiputech.com,Activo,Pago Web,517600402,LA FOLIE CAFE,20517600424,SOLES,5812,A,3720537,,Autorizacion,0,0,0,0,1,1,,,Activo,20517600424,LA FOLIE CAFE,,A,5812,IMP_MONTO_MIN_OPERACION,0.2,IMP_MONTO_MAX_OPERACION,99999,1,16
19,VisaNet,Info,info@quiputech.com,Activo,Pago Web,423571003,CAFE CAFE,20423571030,SOLES,5814,A,4462895,,Autorizacion,0,0,0,0,1,1,,,Activo,20423571030,CAFE CAFE,,A,5814,IMP_MONTO_MIN_OPERACION,0.2,IMP_MONTO_MAX_OPERACION,99999,1,16
19,VisaNet,Info,info@quiputech.com,Activo,Pago Web,602086202,SAKI,20602086209,SOLES,5812,D,940393803,,Autorizacion,0,0,0,0,1,1,,,Activo,20602086209,SAKI,,D,5812,IMP_MONTO_MIN_OPERACION,0.2,IMP_MONTO_MAX_OPERACION,99999,1,16
19,VisaNet,Info,info@quiputech.com,Activo,Pago Web,903180005,SARTEN Y MANGO,10103180037,SOLES,5814,C,991571691,SUSANJENNYASAI@GMAIL.COM,Autorizacion,0,0,0,0,1,1,,,Activo,10103180037,SARTEN Y MANGO,,C,5814,IMP_MONTO_MIN_OPERACION,0.2,IMP_MONTO_MAX_OPERACION,99999,1,16
19,VisaNet,Info,info@quiputech.com,Activo,Pago Web,600439203,PUNTO REGIONAL,20600439261,SOLES,5411,B,972813425,SILVAALEXANDRES123@GMAIL.COM,Autorizacion,0,0,0,0,1,1,,,Activo,20600439261,PUNTO REGIONAL,,B,5411,IMP_MONTO_MIN_OPERACION,0.2,IMP_MONTO_MAX_OPERACION,99999,1,16
19,VisaNet,Info,info@quiputech.com,Activo,Pago Web,600084203,UNIT FOOD,20600084209,SOLES,5812,D,993500743,RAUL.ANDRADE@UNITFOOD.COM,Autorizacion,0,0,0,0,1,1,,,Activo,20600084209,UNIT FOOD,,D,5812,IMP_MONTO_MIN_OPERACION,0.2,IMP_MONTO_MAX_OPERACION,99999,1,16
19,VisaNet,Info,info@quiputech.com,Activo,Pago Web,547254703,EL PIOMBINO,20547254776,SOLES,5462,B,4491872,,Autorizacion,0,0,0,0,1,1,,,Activo,20547254776,EL PIOMBINO,,B,5462,IMP_MONTO_MIN_OPERACION,0.2,IMP_MONTO_MAX_OPERACION,99999,1,16
19,VisaNet,Info,info@quiputech.com,Activo,Pago Web,550392002,GAS DEL MAR,20550392080,SOLES,5541,B,2052900,CUCANAN@ETSANSATURIO.COM,Autorizacion,0,0,0,0,1,1,,,Activo,20550392080,GAS DEL MAR,,B,5541,IMP_MONTO_MIN_OPERACION,0.2,IMP_MONTO_MAX_OPERACION,99999,1,16
19,VisaNet,Info,info@quiputech.com,Activo,Pago Web,493100305,POLLOS Y PARR HILTON DV,20493100301,SOLES,5812,A,2661020,,Autorizacion,0,0,0,0,1,1,,,Activo,20493100301,POLLOS Y PARR HILTON DV,,A,5812,IMP_MONTO_MIN_OPERACION,0.2,IMP_MONTO_MAX_OPERACION,99999,1,16
19,VisaNet,Info,info@quiputech.com,Activo,Pago Web,901013005,OJEDA MARKET DELIVERY,10101013061,SOLES,5411,B,2792880,OJEDACARLOS-5@HOTMAIL.COM,Autorizacion,0,0,0,0,1,1,,,Activo,10101013061,OJEDA MARKET DELIVERY,,B,5411,IMP_MONTO_MIN_OPERACION,0.2,IMP_MONTO_MAX_OPERACION,99999,1,16
19,VisaNet,Info,info@quiputech.com,Activo,Pago Web,565662204,SUKHA LOUNGE SAC,20565662288,SOLES,5812,A,2231542,ACASTILLO@SUKHA.PE,Autorizacion,0,0,0,0,1,1,,,Activo,20565662288,SUKHA LOUNGE SAC,,A,5812,IMP_MONTO_MIN_OPERACION,0.2,IMP_MONTO_MAX_OPERACION,99999,1,16
19,VisaNet,Info,info@quiputech.com,Activo,Pago Web,548921008,JET MARKET SAC,20548921016,SOLES,5411,B,946323830,GLORIATITO7@HOTMAIL.COM,Autorizacion,0,0,0,0,1,1,,,Activo,20548921016,JET MARKET SAC,,B,5411,IMP_MONTO_MIN_OPERACION,0.2,IMP_MONTO_MAX_OPERACION,99999,1,16
19,VisaNet,Info,info@quiputech.com,Activo,Pago Web,506256303,ICLA SAC,20506256306,SOLES,5211,C,4666170,,Autorizacion,0,0,0,0,1,1,,,Activo,20506256306,ICLA SAC,,C,5211,IMP_MONTO_MIN_OPERACION,0.2,IMP_MONTO_MAX_OPERACION,99999,1,16
19,VisaNet,Info,info@quiputech.com,Activo,Pago Web,511555752,PRO BOCA TRR 2,20511555729,SOLES,5814,A,913034815,JUAN.REYESJARD@GMAIL.COM,Autorizacion,0,0,0,0,1,1,,,Activo,20511555729,PRO BOCA TRR 2,,A,5814,IMP_MONTO_MIN_OPERACION,0.2,IMP_MONTO_MAX_OPERACION,99999,1,16
19,VisaNet,Info,info@quiputech.com,Activo,Pago Web,511555753,RESTAURANTE MUTTI,20511555729,SOLES,5814,A,913034815,JUAN.REYESJARD@GMAIL.COM,Autorizacion,0,0,0,0,1,1,,,Activo,20511555729,RESTAURANTE MUTTI,,A,5814,IMP_MONTO_MIN_OPERACION,0.2,IMP_MONTO_MAX_OPERACION,99999,1,16
19,VisaNet,Info,info@quiputech.com,Activo,Pago Web,511555754,PRO BOCA,20511555729,SOLES,5814,A,913034815,,Autorizacion,0,0,0,0,1,1,,,Activo,20511555729,PRO BOCA,,A,5814,IMP_MONTO_MIN_OPERACION,0.2,IMP_MONTO_MAX_OPERACION,99999,1,16
19,VisaNet,Info,info@quiputech.com,Activo,Pago Web,511555754,LA MUTTI,20511555729,SOLES,5814,A,994216741,VERONICA@PRO-BOCA.NET,Autorizacion,0,0,0,0,1,1,,,Activo,20511555729,LA MUTTI,,A,5814,IMP_MONTO_MIN_OPERACION,0.2,IMP_MONTO_MAX_OPERACION,99999,1,16
19,VisaNet,Info,info@quiputech.com,Activo,Pago Web,511670205,LA TARIMA DELIVERY,20511670234,SOLES,5814,B,16274377,CONTACTO@LATINOAMERICACAFECONERT.COM,Autorizacion,0,0,0,0,1,1,,,Activo,20511670234,LA TARIMA DELIVERY,,B,5814,IMP_MONTO_MIN_OPERACION,0.2,IMP_MONTO_MAX_OPERACION,99999,1,16
19,VisaNet,Info,info@quiputech.com,Activo,Pago Web,517441710,MARIA ALMENARA,20517441792,SOLES,5462,B,990525376,EMORALES@MARIALMENARA.PE,Autorizacion,0,0,0,0,1,1,,,Activo,20517441792,MARIA ALMENARA,,B,5462,IMP_MONTO_MIN_OPERACION,0.2,IMP_MONTO_MAX_OPERACION,99999,1,16
19,VisaNet,Info,info@quiputech.com,Activo,Pago Web,517441710,MARIA ALMENARA,20517441792,SOLES,5462,C,950661707,EMORALES@MARIALMENARA.PE,Autorizacion,0,0,0,0,1,1,,,Activo,20517441792,MARIA ALMENARA,,C,5462,IMP_MONTO_MIN_OPERACION,0.2,IMP_MONTO_MAX_OPERACION,99999,1,16
19,VisaNet,Info,info@quiputech.com,Activo,Pago Web,553164102,FLORERIA ANGELICA REYES EIRL,20553164142,SOLES,5992,D,991048916,ANGELICAREYES17@HOTMAIL.COM,Autorizacion,0,0,0,0,1,1,,,Activo,20553164142,FLORERIA ANGELICA REYES EIRL,,D,5992,IMP_MONTO_MIN_OPERACION,0.2,IMP_MONTO_MAX_OPERACION,99999,1,16
19,VisaNet,Info,info@quiputech.com,Activo,Pago Web,565840109,ASTROMELIA SAC,20565840135,SOLES,5992,D,947114417,ASTROMELIAFLORERIAONLINE@GMAIL.COM,Autorizacion,0,0,0,0,1,1,,,Activo,20565840135,ASTROMELIA SAC,,D,5992,IMP_MONTO_MIN_OPERACION,0.2,IMP_MONTO_MAX_OPERACION,99999,1,16
19,VisaNet,Info,info@quiputech.com,Activo,Pago Web,603209106,PASSLINE,20603209151,SOLES,7922,D,977765647,HEINZANDRE@PASSLINE.PE,Autorizacion,0,0,0,0,1,1,,,Activo,20603209151,PASSLINE,,D,7922,IMP_MONTO_MIN_OPERACION,0.2,IMP_MONTO_MAX_OPERACION,99999,1,16
19,VisaNet,Info,info@quiputech.com,Activo,Pago Web,603360804,CAFETERIA DONA MARIA 2,20603360827,SOLES,5812,D,986669076,JESSCYKA.JESUS@GMAIL.COM,Autorizacion,0,0,0,0,1,1,,,Activo,20603360827,CAFETERIA DONA MARIA 2,,D,5812,IMP_MONTO_MIN_OPERACION,0.2,IMP_MONTO_MAX_OPERACION,99999,1,16
19,VisaNet,Info,info@quiputech.com,Activo,Pago Web,506404202,EBONY,20506404267,SOLES,5411,B,2244924,,Autorizacion,0,0,0,0,1,1,,,Activo,20506404267,EBONY,,B,5411,IMP_MONTO_MIN_OPERACION,0.2,IMP_MONTO_MAX_OPERACION,99999,1,16
